[{"id":1,"first_name":"Sarah","last_name":"Sewell","email":"ssewell0@tmall.com","address":"49943 Mesta Lane","city":"Augusta","state":"Georgia","zipcode":"30919","phone":"706-830-2680"},
{"id":2,"first_name":"Jasmine","last_name":"Burgen","email":"jburgen1@w3.org","address":"5 Prentice Place","city":"Hamilton","state":"Ohio","zipcode":"45020","phone":"937-969-7732"},
{"id":3,"first_name":"Alexandr","last_name":"Bindin","email":"abindin2@bbb.org","address":"250 Montana Alley","city":"Lexington","state":"Kentucky","zipcode":"40596","phone":"859-925-8630"},
{"id":4,"first_name":"Glad","last_name":"Netti","email":"gnetti3@flickr.com","address":"8665 Parkside Center","city":"Washington","state":"District of Columbia","zipcode":"20503","phone":"202-229-4367"},
{"id":5,"first_name":"Ranee","last_name":"Gilgryst","email":"rgilgryst4@stumbleupon.com","address":"170 Gateway Avenue","city":"Warren","state":"Michigan","zipcode":"48092","phone":"586-997-6089"},
{"id":6,"first_name":"Enrichetta","last_name":"Westhoff","email":"ewesthoff5@ox.ac.uk","address":"24 Ryan Hill","city":"Hyattsville","state":"Maryland","zipcode":"20784","phone":"301-134-6994"},
{"id":7,"first_name":"Vivyan","last_name":"Burghall","email":"vburghall6@alexa.com","address":"1800 Prairieview Circle","city":"Sacramento","state":"California","zipcode":"94230","phone":"916-392-1003"},
{"id":8,"first_name":"Gwendolin","last_name":"Rowatt","email":"growatt7@ftc.gov","address":"90956 Welch Road","city":"Tacoma","state":"Washington","zipcode":"98442","phone":"253-968-0575"},
{"id":9,"first_name":"Franklin","last_name":"Marquess","email":"fmarquess8@mlb.com","address":"277 Superior Pass","city":"San Diego","state":"California","zipcode":"92165","phone":"619-679-5072"},
{"id":10,"first_name":"Darlene","last_name":"Northwood","email":"dnorthwood9@independent.co.uk","address":"58 Prairie Rose Lane","city":"Oklahoma City","state":"Oklahoma","zipcode":"73197","phone":"405-302-6766"},
{"id":11,"first_name":"Maggie","last_name":"Simacek","email":"msimaceka@cdbaby.com","address":"183 Scofield Parkway","city":"Mobile","state":"Alabama","zipcode":"36622","phone":"251-542-3358"},
{"id":12,"first_name":"Win","last_name":"Cornillot","email":"wcornillotb@so-net.ne.jp","address":"4630 Mifflin Circle","city":"Jackson","state":"Mississippi","zipcode":"39204","phone":"601-547-5373"},
{"id":13,"first_name":"Ogden","last_name":"Hindshaw","email":"ohindshawc@time.com","address":"8 Monument Street","city":"Aurora","state":"Colorado","zipcode":"80015","phone":"720-202-0675"},
{"id":14,"first_name":"L;urette","last_name":"Heninghem","email":"lheninghemd@wufoo.com","address":"8948 Ridgeview Road","city":"Rochester","state":"New York","zipcode":"14614","phone":"585-204-7581"},
{"id":15,"first_name":"Shani","last_name":"Baudassi","email":"sbaudassie@cam.ac.uk","address":"47621 Jackson Park","city":"Atlanta","state":"Georgia","zipcode":"31165","phone":"404-999-6972"},
{"id":16,"first_name":"Berkley","last_name":"Conner","email":"bconnerf@squarespace.com","address":"0356 Veith Park","city":"Phoenix","state":"Arizona","zipcode":"85083","phone":"602-951-8367"},
{"id":17,"first_name":"Godfrey","last_name":"Wederell","email":"gwederellg@google.it","address":"2746 Lotheville Court","city":"Sioux City","state":"Iowa","zipcode":"51110","phone":"712-665-6357"},
{"id":18,"first_name":"Belita","last_name":"Doswell","email":"bdoswellh@dailymotion.com","address":"3669 Mockingbird Terrace","city":"Rochester","state":"New York","zipcode":"14652","phone":"585-422-7784"},
{"id":19,"first_name":"Mitchell","last_name":"Belfelt","email":"mbelfelti@jigsy.com","address":"912 Burrows Road","city":"Huntington","state":"West Virginia","zipcode":"25726","phone":"304-640-1519"},
{"id":20,"first_name":"Karoline","last_name":"Pottie","email":"kpottiej@freewebs.com","address":"3779 Porter Plaza","city":"Washington","state":"District of Columbia","zipcode":"56944","phone":"202-905-4959"},
{"id":21,"first_name":"Darrick","last_name":"Bretton","email":"dbrettonk@reddit.com","address":"2 Bartillon Lane","city":"San Mateo","state":"California","zipcode":"94405","phone":"805-483-6660"},
{"id":22,"first_name":"Cristobal","last_name":"Wildgoose","email":"cwildgoosel@jiathis.com","address":"5 Florence Center","city":"Waco","state":"Texas","zipcode":"76705","phone":"254-875-7964"},
{"id":23,"first_name":"Lyell","last_name":"Ralling","email":"lrallingm@cyberchimps.com","address":"10164 Declaration Junction","city":"Charleston","state":"West Virginia","zipcode":"25356","phone":"304-663-2124"},
{"id":24,"first_name":"Bay","last_name":"Polley","email":"bpolleyn@home.pl","address":"781 Shelley Alley","city":"Corona","state":"California","zipcode":"92883","phone":"951-861-7051"},
{"id":25,"first_name":"Ekaterina","last_name":"Jaulmes","email":"ejaulmeso@ning.com","address":"9715 David Center","city":"Mobile","state":"Alabama","zipcode":"36689","phone":"251-109-5351"},
{"id":26,"first_name":"Frazier","last_name":"Tuttle","email":"ftuttlep@uol.com.br","address":"145 Loftsgordon Street","city":"Austin","state":"Texas","zipcode":"78754","phone":"512-946-3673"},
{"id":27,"first_name":"Laney","last_name":"Ribey","email":"lribeyq@tuttocitta.it","address":"74 Mayer Place","city":"El Paso","state":"Texas","zipcode":"88579","phone":"915-639-2499"},
{"id":28,"first_name":"Odilia","last_name":"Reen","email":"oreenr@artisteer.com","address":"8420 Fairview Avenue","city":"Des Moines","state":"Iowa","zipcode":"50310","phone":"515-729-3369"},
{"id":29,"first_name":"Maurita","last_name":"Maunton","email":"mmauntons@ucoz.ru","address":"71 Killdeer Plaza","city":"San Jose","state":"California","zipcode":"95138","phone":"408-213-8871"},
{"id":30,"first_name":"Suzanne","last_name":"Stappard","email":"sstappardt@last.fm","address":"3039 Morning Lane","city":"Shawnee Mission","state":"Kansas","zipcode":"66205","phone":"816-931-8445"},
{"id":31,"first_name":"Rahal","last_name":"Dyball","email":"rdyballu@wikia.com","address":"92 Continental Crossing","city":"Staten Island","state":"New York","zipcode":"10305","phone":"718-257-0788"},
{"id":32,"first_name":"Shayna","last_name":"Afield","email":"safieldv@hud.gov","address":"777 Portage Court","city":"Yonkers","state":"New York","zipcode":"10705","phone":"914-499-1702"},
{"id":33,"first_name":"Rosemarie","last_name":"Give","email":"rgivew@skype.com","address":"1 Bashford Point","city":"Cincinnati","state":"Ohio","zipcode":"45218","phone":"513-964-3476"},
{"id":34,"first_name":"Paton","last_name":"Cantrell","email":"pcantrellx@harvard.edu","address":"857 Carioca Terrace","city":"Saint Louis","state":"Missouri","zipcode":"63180","phone":"314-559-5573"},
{"id":35,"first_name":"Elaine","last_name":"Brosenius","email":"ebroseniusy@biblegateway.com","address":"835 Blue Bill Park Plaza","city":"Frankfort","state":"Kentucky","zipcode":"40618","phone":"502-134-0355"},
{"id":36,"first_name":"Nickolai","last_name":"Statter","email":"nstatterz@hao123.com","address":"06 Northfield Center","city":"Kansas City","state":"Missouri","zipcode":"64109","phone":"816-674-6505"},
{"id":37,"first_name":"Lyssa","last_name":"Girogetti","email":"lgirogetti10@eventbrite.com","address":"4 Marcy Center","city":"Charleston","state":"South Carolina","zipcode":"29411","phone":"843-277-2987"},
{"id":38,"first_name":"Brier","last_name":"Paik","email":"bpaik11@yellowbook.com","address":"7 Fremont Point","city":"Pasadena","state":"California","zipcode":"91199","phone":"626-792-1064"},
{"id":39,"first_name":"Stephana","last_name":"Kinch","email":"skinch12@weibo.com","address":"80 Commercial Lane","city":"Fort Smith","state":"Arkansas","zipcode":"72916","phone":"479-265-7417"},
{"id":40,"first_name":"Abbi","last_name":"Plan","email":"aplan13@chicagotribune.com","address":"6482 Artisan Pass","city":"Boston","state":"Massachusetts","zipcode":"02114","phone":"617-909-7083"},
{"id":41,"first_name":"Derry","last_name":"Nolot","email":"dnolot14@usda.gov","address":"9 Ronald Regan Junction","city":"Columbia","state":"South Carolina","zipcode":"29215","phone":"803-544-7677"},
{"id":42,"first_name":"Inez","last_name":"Charkham","email":"icharkham15@phoca.cz","address":"8435 Fisk Circle","city":"Albany","state":"Georgia","zipcode":"31704","phone":"229-950-8778"},
{"id":43,"first_name":"Antonio","last_name":"Kinahan","email":"akinahan16@people.com.cn","address":"1501 Morningstar Place","city":"Topeka","state":"Kansas","zipcode":"66611","phone":"785-702-3753"},
{"id":44,"first_name":"Chantal","last_name":"De la Yglesia","email":"cdelayglesia17@pbs.org","address":"0 Holmberg Trail","city":"Houston","state":"Texas","zipcode":"77218","phone":"713-441-7806"},
{"id":45,"first_name":"Ellswerth","last_name":"Lampett","email":"elampett18@zdnet.com","address":"218 Bultman Point","city":"Washington","state":"District of Columbia","zipcode":"20580","phone":"202-586-5338"},
{"id":46,"first_name":"Natividad","last_name":"Gerardin","email":"ngerardin19@nytimes.com","address":"68 Mcguire Hill","city":"Atlanta","state":"Georgia","zipcode":"30351","phone":"404-185-9857"},
{"id":47,"first_name":"Anastasie","last_name":"Jorczyk","email":"ajorczyk1a@ucsd.edu","address":"89 Sherman Avenue","city":"Amarillo","state":"Texas","zipcode":"79116","phone":"806-598-1047"},
{"id":48,"first_name":"Bucky","last_name":"Tullett","email":"btullett1b@sun.com","address":"21599 Linden Way","city":"Shawnee Mission","state":"Kansas","zipcode":"66210","phone":"816-513-7141"},
{"id":49,"first_name":"Henri","last_name":"McLucas","email":"hmclucas1c@php.net","address":"1 Sheridan Hill","city":"Boise","state":"Idaho","zipcode":"83705","phone":"208-149-2920"},
{"id":50,"first_name":"Cahra","last_name":"Arrighini","email":"carrighini1d@howstuffworks.com","address":"1 Morrow Avenue","city":"Memphis","state":"Tennessee","zipcode":"38168","phone":"901-892-8076"},
{"id":51,"first_name":"Sherman","last_name":"Rosbottom","email":"srosbottom1e@paginegialle.it","address":"28 Anzinger Park","city":"Madison","state":"Wisconsin","zipcode":"53790","phone":"608-919-1092"},
{"id":52,"first_name":"Zelda","last_name":"Julyan","email":"zjulyan1f@google.com","address":"62 David Drive","city":"Las Vegas","state":"Nevada","zipcode":"89120","phone":"702-728-7446"},
{"id":53,"first_name":"Analise","last_name":"Tran","email":"atran1g@wired.com","address":"03 Goodland Pass","city":"Lynn","state":"Massachusetts","zipcode":"01905","phone":"781-263-6494"},
{"id":54,"first_name":"Paulie","last_name":"Mark","email":"pmark1h@wikimedia.org","address":"99 Bartelt Pass","city":"Zephyrhills","state":"Florida","zipcode":"33543","phone":"813-639-4335"},
{"id":55,"first_name":"Annalee","last_name":"Onge","email":"aonge1i@ebay.com","address":"8 Thierer Avenue","city":"Portland","state":"Oregon","zipcode":"97271","phone":"971-185-4148"},
{"id":56,"first_name":"Claudina","last_name":"Prevost","email":"cprevost1j@unesco.org","address":"2438 Helena Alley","city":"Pensacola","state":"Florida","zipcode":"32511","phone":"850-775-4238"},
{"id":57,"first_name":"Helli","last_name":"Darrach","email":"hdarrach1k@newyorker.com","address":"5 Mayfield Terrace","city":"Atlanta","state":"Georgia","zipcode":"30343","phone":"404-645-4819"},
{"id":58,"first_name":"Amy","last_name":"Baldi","email":"abaldi1l@goodreads.com","address":"283 Darwin Pass","city":"Muncie","state":"Indiana","zipcode":"47306","phone":"765-542-3613"},
{"id":59,"first_name":"Merrie","last_name":"Friedenbach","email":"mfriedenbach1m@live.com","address":"204 David Crossing","city":"New York City","state":"New York","zipcode":"10110","phone":"646-963-8517"},
{"id":60,"first_name":"Loria","last_name":"Jowers","email":"ljowers1n@goo.ne.jp","address":"24380 Maple Wood Avenue","city":"San Diego","state":"California","zipcode":"92160","phone":"619-172-1614"},
{"id":61,"first_name":"Arabelle","last_name":"Aukland","email":"aaukland1o@java.com","address":"92525 Summerview Trail","city":"Des Moines","state":"Iowa","zipcode":"50320","phone":"515-980-3398"},
{"id":62,"first_name":"Artur","last_name":"Bostick","email":"abostick1p@apache.org","address":"85911 Sullivan Road","city":"Cambridge","state":"Massachusetts","zipcode":"02142","phone":"617-215-4003"},
{"id":63,"first_name":"Kirstin","last_name":"Rockcliff","email":"krockcliff1q@state.tx.us","address":"1 Blaine Avenue","city":"Moreno Valley","state":"California","zipcode":"92555","phone":"951-388-9677"},
{"id":64,"first_name":"Augy","last_name":"Manion","email":"amanion1r@zimbio.com","address":"49686 Thierer Court","city":"Saint Paul","state":"Minnesota","zipcode":"55115","phone":"651-734-6342"},
{"id":65,"first_name":"Elaine","last_name":"Ambroziak","email":"eambroziak1s@bing.com","address":"74132 Ryan Hill","city":"Lees Summit","state":"Missouri","zipcode":"64082","phone":"816-627-7799"},
{"id":66,"first_name":"Phelia","last_name":"Marsland","email":"pmarsland1t@springer.com","address":"2499 Glacier Hill Alley","city":"Bronx","state":"New York","zipcode":"10469","phone":"347-237-0753"},
{"id":67,"first_name":"Russell","last_name":"Humm","email":"rhumm1u@abc.net.au","address":"3687 Clarendon Circle","city":"New Orleans","state":"Louisiana","zipcode":"70183","phone":"504-569-1253"},
{"id":68,"first_name":"Franciska","last_name":"Ravenscraft","email":"fravenscraft1v@rakuten.co.jp","address":"6743 Harbort Lane","city":"Sacramento","state":"California","zipcode":"94286","phone":"916-930-0243"},
{"id":69,"first_name":"Lyndell","last_name":"Kleinmann","email":"lkleinmann1w@bbb.org","address":"558 Little Fleur Point","city":"Portland","state":"Oregon","zipcode":"97221","phone":"503-935-0172"},
{"id":70,"first_name":"Linette","last_name":"Melbert","email":"lmelbert1x@printfriendly.com","address":"56391 Rusk Point","city":"Birmingham","state":"Alabama","zipcode":"35220","phone":"205-645-0407"},
{"id":71,"first_name":"Joann","last_name":"Rouchy","email":"jrouchy1y@list-manage.com","address":"034 Kedzie Way","city":"Arlington","state":"Texas","zipcode":"76004","phone":"817-859-5375"},
{"id":72,"first_name":"Abdel","last_name":"Harborow","email":"aharborow1z@pagesperso-orange.fr","address":"297 Fremont Road","city":"Portland","state":"Oregon","zipcode":"97201","phone":"503-913-7432"},
{"id":73,"first_name":"Shandra","last_name":"Moggie","email":"smoggie20@g.co","address":"96 Macpherson Trail","city":"Naperville","state":"Illinois","zipcode":"60567","phone":"630-764-9401"},
{"id":74,"first_name":"Lorry","last_name":"Birchwood","email":"lbirchwood21@miibeian.gov.cn","address":"90 Bowman Avenue","city":"Aurora","state":"Colorado","zipcode":"80045","phone":"303-884-4817"},
{"id":75,"first_name":"Arvie","last_name":"Tredinnick","email":"atredinnick22@nasa.gov","address":"3848 Drewry Alley","city":"Albany","state":"Georgia","zipcode":"31704","phone":"229-388-6404"},
{"id":76,"first_name":"Ram","last_name":"Butlin","email":"rbutlin23@dailymotion.com","address":"47 Hanson Junction","city":"Charleston","state":"West Virginia","zipcode":"25313","phone":"304-657-4826"},
{"id":77,"first_name":"Elfrieda","last_name":"Zack","email":"ezack24@bloglovin.com","address":"680 Sherman Plaza","city":"Grand Rapids","state":"Michigan","zipcode":"49544","phone":"616-150-4906"},
{"id":78,"first_name":"Rosemaria","last_name":"Chalice","email":"rchalice25@example.com","address":"33 Sugar Park","city":"Jamaica","state":"New York","zipcode":"11436","phone":"718-638-2210"},
{"id":79,"first_name":"Rebekkah","last_name":"Jobey","email":"rjobey26@surveymonkey.com","address":"6111 Fair Oaks Circle","city":"Boston","state":"Massachusetts","zipcode":"02124","phone":"617-989-4561"},
{"id":80,"first_name":"Joye","last_name":"Peyto","email":"jpeyto27@typepad.com","address":"95 Erie Place","city":"Birmingham","state":"Alabama","zipcode":"35279","phone":"205-976-8910"},
{"id":81,"first_name":"Armstrong","last_name":"Yegorkin","email":"ayegorkin28@pinterest.com","address":"93 Oak Valley Center","city":"Baton Rouge","state":"Louisiana","zipcode":"70894","phone":"225-407-2363"},
{"id":82,"first_name":"Stinky","last_name":"Fake","email":"sfake29@cloudflare.com","address":"309 Ludington Hill","city":"Vancouver","state":"Washington","zipcode":"98687","phone":"360-126-0419"},
{"id":83,"first_name":"Raff","last_name":"Duffil","email":"rduffil2a@unicef.org","address":"360 Oakridge Alley","city":"Arlington","state":"Texas","zipcode":"76096","phone":"214-616-2595"},
{"id":84,"first_name":"Randal","last_name":"Andrzej","email":"randrzej2b@yahoo.com","address":"60 Monument Court","city":"Erie","state":"Pennsylvania","zipcode":"16565","phone":"814-809-5184"},
{"id":85,"first_name":"Wit","last_name":"Gore","email":"wgore2c@fotki.com","address":"4 Eagan Pass","city":"Seattle","state":"Washington","zipcode":"98148","phone":"253-597-8367"},
{"id":86,"first_name":"Ebenezer","last_name":"Housley","email":"ehousley2d@state.gov","address":"304 Goodland Alley","city":"Hattiesburg","state":"Mississippi","zipcode":"39404","phone":"601-428-4188"},
{"id":87,"first_name":"Jard","last_name":"Trotman","email":"jtrotman2e@toplist.cz","address":"9 Leroy Point","city":"Salt Lake City","state":"Utah","zipcode":"84110","phone":"801-507-0037"},
{"id":88,"first_name":"Manon","last_name":"Pablos","email":"mpablos2f@acquirethisname.com","address":"41 Barnett Terrace","city":"Austin","state":"Texas","zipcode":"78703","phone":"512-435-9348"},
{"id":89,"first_name":"Aundrea","last_name":"Trundell","email":"atrundell2g@t-online.de","address":"817 Summer Ridge Crossing","city":"Philadelphia","state":"Pennsylvania","zipcode":"19109","phone":"215-985-7107"},
{"id":90,"first_name":"Tomas","last_name":"Mepsted","email":"tmepsted2h@trellian.com","address":"4 Lawn Terrace","city":"Lincoln","state":"Nebraska","zipcode":"68510","phone":"402-702-8630"},
{"id":91,"first_name":"Ruthy","last_name":"Vaughan-Hughes","email":"rvaughanhughes2i@salon.com","address":"7 Dayton Terrace","city":"Delray Beach","state":"Florida","zipcode":"33448","phone":"561-992-7750"},
{"id":92,"first_name":"Elva","last_name":"Patria","email":"epatria2j@i2i.jp","address":"25 Merrick Street","city":"Seminole","state":"Florida","zipcode":"34642","phone":"941-193-5067"},
{"id":93,"first_name":"Jyoti","last_name":"Loch","email":"jloch2k@icio.us","address":"7 Mariners Cove Circle","city":"Springfield","state":"Illinois","zipcode":"62711","phone":"217-187-3037"},
{"id":94,"first_name":"Christiano","last_name":"Tanzig","email":"ctanzig2l@chron.com","address":"84363 Nelson Crossing","city":"Trenton","state":"New Jersey","zipcode":"08608","phone":"609-150-1728"},
{"id":95,"first_name":"Alys","last_name":"Mitchener","email":"amitchener2m@mapquest.com","address":"606 Mccormick Street","city":"Silver Spring","state":"Maryland","zipcode":"20904","phone":"301-574-9439"},
{"id":96,"first_name":"Karita","last_name":"Wolland","email":"kwolland2n@usda.gov","address":"6 Bluejay Center","city":"Raleigh","state":"North Carolina","zipcode":"27605","phone":"919-525-6027"},
{"id":97,"first_name":"Michail","last_name":"Broadstock","email":"mbroadstock2o@sogou.com","address":"3036 Anniversary Junction","city":"Henderson","state":"Nevada","zipcode":"89074","phone":"702-964-2675"},
{"id":98,"first_name":"Clayborn","last_name":"Jardine","email":"cjardine2p@unicef.org","address":"0 Londonderry Point","city":"Lees Summit","state":"Missouri","zipcode":"64082","phone":"816-693-2289"},
{"id":99,"first_name":"Tabina","last_name":"Cisneros","email":"tcisneros2q@harvard.edu","address":"19710 David Place","city":"Raleigh","state":"North Carolina","zipcode":"27626","phone":"919-504-9028"},
{"id":100,"first_name":"Jane","last_name":"Beccles","email":"jbeccles2r@addtoany.com","address":"61337 Forest Way","city":"Flint","state":"Michigan","zipcode":"48550","phone":"810-480-3144"},
{"id":101,"first_name":"Loralie","last_name":"Leefe","email":"lleefe2s@deviantart.com","address":"3 Calypso Lane","city":"Pittsburgh","state":"Pennsylvania","zipcode":"15225","phone":"412-539-7381"},
{"id":102,"first_name":"Marylinda","last_name":"Marklund","email":"mmarklund2t@163.com","address":"69 Red Cloud Plaza","city":"New York City","state":"New York","zipcode":"10039","phone":"917-295-5101"},
{"id":103,"first_name":"Adora","last_name":"Urey","email":"aurey2u@uiuc.edu","address":"1 Sunnyside Lane","city":"New Orleans","state":"Louisiana","zipcode":"70149","phone":"504-100-8861"},
{"id":104,"first_name":"Sydel","last_name":"Monson","email":"smonson2v@google.com.br","address":"1 Ilene Court","city":"Chicago","state":"Illinois","zipcode":"60652","phone":"773-856-4316"},
{"id":105,"first_name":"Bliss","last_name":"Mazzilli","email":"bmazzilli2w@ft.com","address":"50378 Everett Terrace","city":"Orlando","state":"Florida","zipcode":"32868","phone":"407-235-1851"},
{"id":106,"first_name":"Anna-maria","last_name":"Elman","email":"aelman2x@ucoz.ru","address":"948 Vahlen Crossing","city":"San Jose","state":"California","zipcode":"95138","phone":"408-262-6483"},
{"id":107,"first_name":"Merline","last_name":"Di Bartolomeo","email":"mdibartolomeo2y@reference.com","address":"064 Blue Bill Park Crossing","city":"Manassas","state":"Virginia","zipcode":"22111","phone":"434-291-5620"},
{"id":108,"first_name":"Husain","last_name":"Somerscales","email":"hsomerscales2z@theguardian.com","address":"4934 Farwell Place","city":"Pittsburgh","state":"Pennsylvania","zipcode":"15255","phone":"412-112-7011"},
{"id":109,"first_name":"Towney","last_name":"Miko","email":"tmiko30@yolasite.com","address":"379 Ruskin Center","city":"Richmond","state":"Virginia","zipcode":"23272","phone":"804-622-8579"},
{"id":110,"first_name":"Graham","last_name":"Fishley","email":"gfishley31@dailymotion.com","address":"8 Atwood Plaza","city":"Naples","state":"Florida","zipcode":"34114","phone":"239-146-1672"},
{"id":111,"first_name":"Ebonee","last_name":"Carlo","email":"ecarlo32@msn.com","address":"7 Independence Drive","city":"Naperville","state":"Illinois","zipcode":"60567","phone":"630-903-1454"},
{"id":112,"first_name":"Trixy","last_name":"Powys","email":"tpowys33@google.ru","address":"21100 Mallard Way","city":"Fort Worth","state":"Texas","zipcode":"76110","phone":"817-780-1079"},
{"id":113,"first_name":"Cassy","last_name":"Isakov","email":"cisakov34@storify.com","address":"50 Troy Trail","city":"Chicago","state":"Illinois","zipcode":"60674","phone":"312-253-2706"},
{"id":114,"first_name":"Cindie","last_name":"Saturley","email":"csaturley35@ox.ac.uk","address":"7934 6th Point","city":"Suffolk","state":"Virginia","zipcode":"23436","phone":"757-881-1358"},
{"id":115,"first_name":"Gar","last_name":"Anger","email":"ganger36@cpanel.net","address":"7154 Red Cloud Point","city":"Evansville","state":"Indiana","zipcode":"47725","phone":"812-103-7902"},
{"id":116,"first_name":"Cortney","last_name":"Duthy","email":"cduthy37@buzzfeed.com","address":"3 Dixon Terrace","city":"Indianapolis","state":"Indiana","zipcode":"46254","phone":"317-688-1798"},
{"id":117,"first_name":"Arlen","last_name":"Hitzmann","email":"ahitzmann38@php.net","address":"0196 Havey Pass","city":"Albany","state":"New York","zipcode":"12262","phone":"518-181-4715"},
{"id":118,"first_name":"Frasier","last_name":"Busk","email":"fbusk39@reference.com","address":"316 Donald Street","city":"Fort Lauderdale","state":"Florida","zipcode":"33305","phone":"954-679-2540"},
{"id":119,"first_name":"Cornelle","last_name":"Tschersich","email":"ctschersich3a@drupal.org","address":"72 School Circle","city":"Montgomery","state":"Alabama","zipcode":"36125","phone":"334-549-7369"},
{"id":120,"first_name":"Halette","last_name":"Ferraresi","email":"hferraresi3b@ox.ac.uk","address":"5 Summer Ridge Avenue","city":"Akron","state":"Ohio","zipcode":"44315","phone":"330-830-9305"},
{"id":121,"first_name":"Anatollo","last_name":"Muir","email":"amuir3c@chicagotribune.com","address":"712 North Plaza","city":"Buffalo","state":"New York","zipcode":"14263","phone":"716-376-0498"},
{"id":122,"first_name":"Elijah","last_name":"Lawry","email":"elawry3d@utexas.edu","address":"849 Schurz Park","city":"Naples","state":"Florida","zipcode":"34114","phone":"239-588-3558"},
{"id":123,"first_name":"Hattie","last_name":"Enden","email":"henden3e@ezinearticles.com","address":"38 Fisk Alley","city":"Pensacola","state":"Florida","zipcode":"32520","phone":"850-246-7366"},
{"id":124,"first_name":"Meridel","last_name":"Hulke","email":"mhulke3f@disqus.com","address":"42 Northwestern Place","city":"Greenville","state":"South Carolina","zipcode":"29615","phone":"864-236-3237"},
{"id":125,"first_name":"Etta","last_name":"Blackburne","email":"eblackburne3g@dropbox.com","address":"4 Granby Parkway","city":"Jamaica","state":"New York","zipcode":"11436","phone":"718-248-1571"},
{"id":126,"first_name":"Chelsey","last_name":"Kubal","email":"ckubal3h@bravesites.com","address":"06328 Blue Bill Park Lane","city":"Boston","state":"Massachusetts","zipcode":"02203","phone":"617-327-2642"},
{"id":127,"first_name":"Corey","last_name":"Mariotte","email":"cmariotte3i@princeton.edu","address":"64 Scofield Circle","city":"Santa Barbara","state":"California","zipcode":"93150","phone":"805-796-7867"},
{"id":128,"first_name":"Jacobo","last_name":"Bazley","email":"jbazley3j@facebook.com","address":"418 Southridge Lane","city":"Charlotte","state":"North Carolina","zipcode":"28230","phone":"704-613-7261"},
{"id":129,"first_name":"Jaquelyn","last_name":"Wildber","email":"jwildber3k@jigsy.com","address":"428 6th Court","city":"El Paso","state":"Texas","zipcode":"88546","phone":"915-414-6910"},
{"id":130,"first_name":"Angelle","last_name":"De Angelis","email":"adeangelis3l@wunderground.com","address":"8939 Thompson Alley","city":"Washington","state":"District of Columbia","zipcode":"20551","phone":"202-535-1297"},
{"id":131,"first_name":"Aldrich","last_name":"Carr","email":"acarr3m@walmart.com","address":"5 Golden Leaf Road","city":"Kansas City","state":"Missouri","zipcode":"64136","phone":"816-285-7205"},
{"id":132,"first_name":"Sarajane","last_name":"Dansie","email":"sdansie3n@bloomberg.com","address":"6778 Debra Street","city":"Indianapolis","state":"Indiana","zipcode":"46221","phone":"317-470-5402"},
{"id":133,"first_name":"Sam","last_name":"Brickwood","email":"sbrickwood3o@hc360.com","address":"51 Melrose Drive","city":"Philadelphia","state":"Pennsylvania","zipcode":"19146","phone":"267-700-2585"},
{"id":134,"first_name":"Corri","last_name":"Duffet","email":"cduffet3p@kickstarter.com","address":"7 Bunting Crossing","city":"Louisville","state":"Kentucky","zipcode":"40280","phone":"502-776-0096"},
{"id":135,"first_name":"Katine","last_name":"Juszczak","email":"kjuszczak3q@earthlink.net","address":"77520 Welch Trail","city":"Jacksonville","state":"Florida","zipcode":"32220","phone":"904-783-7587"},
{"id":136,"first_name":"Taffy","last_name":"Pyrke","email":"tpyrke3r@miitbeian.gov.cn","address":"52 Manley Park","city":"Pittsburgh","state":"Pennsylvania","zipcode":"15250","phone":"412-424-9511"},
{"id":137,"first_name":"Connie","last_name":"Christall","email":"cchristall3s@about.me","address":"86 Daystar Hill","city":"New York City","state":"New York","zipcode":"10203","phone":"212-304-0528"},
{"id":138,"first_name":"Noel","last_name":"Antowski","email":"nantowski3t@craigslist.org","address":"2555 Golf View Road","city":"Tacoma","state":"Washington","zipcode":"98411","phone":"253-885-5154"},
{"id":139,"first_name":"Carolee","last_name":"Messent","email":"cmessent3u@fda.gov","address":"9600 Sundown Trail","city":"Omaha","state":"Nebraska","zipcode":"68105","phone":"402-740-7892"},
{"id":140,"first_name":"Randie","last_name":"Croughan","email":"rcroughan3v@zdnet.com","address":"4 Crest Line Hill","city":"Saint Louis","state":"Missouri","zipcode":"63180","phone":"314-867-6804"},
{"id":141,"first_name":"Julie","last_name":"Whitwood","email":"jwhitwood3w@sourceforge.net","address":"3189 Grayhawk Lane","city":"Fort Lauderdale","state":"Florida","zipcode":"33325","phone":"954-158-7254"},
{"id":142,"first_name":"Jayme","last_name":"Rydzynski","email":"jrydzynski3x@usnews.com","address":"2466 Killdeer Hill","city":"Mobile","state":"Alabama","zipcode":"36616","phone":"251-672-1186"},
{"id":143,"first_name":"Riva","last_name":"Chaim","email":"rchaim3y@foxnews.com","address":"6 Village Green Plaza","city":"Tucson","state":"Arizona","zipcode":"85754","phone":"520-197-5356"},
{"id":144,"first_name":"Bradney","last_name":"Inch","email":"binch3z@vinaora.com","address":"0499 Everett Circle","city":"Reno","state":"Nevada","zipcode":"89510","phone":"775-421-1594"},
{"id":145,"first_name":"Wiatt","last_name":"Stiegers","email":"wstiegers40@nationalgeographic.com","address":"5145 Prairieview Crossing","city":"Arlington","state":"Virginia","zipcode":"22212","phone":"571-280-4403"},
{"id":146,"first_name":"Dorree","last_name":"Othen","email":"dothen41@t-online.de","address":"3467 Barnett Street","city":"Shawnee Mission","state":"Kansas","zipcode":"66205","phone":"913-670-8794"},
{"id":147,"first_name":"Corry","last_name":"Crowest","email":"ccrowest42@berkeley.edu","address":"300 Claremont Center","city":"Tampa","state":"Florida","zipcode":"33673","phone":"813-312-2877"},
{"id":148,"first_name":"Elnore","last_name":"Steane","email":"esteane43@sbwire.com","address":"66452 Paget Street","city":"Worcester","state":"Massachusetts","zipcode":"01610","phone":"508-355-4087"},
{"id":149,"first_name":"Matty","last_name":"Bywaters","email":"mbywaters44@wsj.com","address":"3 Mariners Cove Alley","city":"Humble","state":"Texas","zipcode":"77346","phone":"713-983-7823"},
{"id":150,"first_name":"Brendan","last_name":"Largan","email":"blargan45@github.com","address":"9 Haas Parkway","city":"Madison","state":"Wisconsin","zipcode":"53790","phone":"608-154-4332"}]